## Autogenerated by Scribe. DO NOT MODIFY.

name: 'Parking Lot (User)'
description: ''
endpoints:
  -
    custom: []
    httpMethods:
      - GET
    uri: api/parking-lots
    metadata:
      custom: []
      groupName: 'Parking Lot (User)'
      groupDescription: ''
      subgroup: ''
      subgroupDescription: ''
      title: 'Get parking lots'
      description: |-
        Mengambil daftar parking lot untuk user.
        Mendukung pencarian, filter status, pagination, dan limit.
      authenticated: true
      deprecated: false
    headers:
      Content-Type: application/json
      Accept: application/json
    urlParameters: []
    cleanUrlParameters: []
    queryParameters:
      search:
        custom: []
        name: search
        description: 'Filter berdasarkan nama parking lot.'
        required: false
        example: Basement
        type: string
        enumValues: []
        exampleWasSpecified: true
        nullable: false
        deprecated: false
      status:
        custom: []
        name: status
        description: 'Filter status parking lot.'
        required: false
        example: open
        type: string
        enumValues:
          - full
          - open
        exampleWasSpecified: true
        nullable: false
        deprecated: false
      perPage:
        custom: []
        name: perPage
        description: 'Jumlah data per halaman (pagination). Default: 10.'
        required: false
        example: 10
        type: integer
        enumValues: []
        exampleWasSpecified: true
        nullable: false
        deprecated: false
      limit:
        custom: []
        name: limit
        description: 'Ambil data tanpa pagination (misalnya untuk homepage).'
        required: false
        example: 3
        type: integer
        enumValues: []
        exampleWasSpecified: true
        nullable: false
        deprecated: false
    cleanQueryParameters:
      search: Basement
      status: open
      perPage: 10
      limit: 3
    bodyParameters: []
    cleanBodyParameters: []
    fileParameters: []
    responses:
      -
        custom: []
        status: 200
        content: |-
          {
            "data": [
              {
                "id": 1,
                "name": "Basement A",
                "capacity": 50,
                "available_spots": 10,
                "status": "active",
                "created_at": "2026-02-01 08:00:00"
              }
            ],
            "meta": {
              "current_page": 1,
              "last_page": 5,
              "per_page": 10,
              "total": 50
            }
          }
        headers: []
        description: ''
      -
        custom: []
        status: 200
        content: |-
          [
            {
              "id": 1,
              "name": "Basement A",
              "capacity": 50,
              "available_spots": 10,
              "status": "active"
            }
          ]
        headers: []
        description: ''
    responseFields: []
    auth: []
    controller: null
    method: null
    route: null
