## Autogenerated by Scribe. DO NOT MODIFY.

name: 'Parking Book'
description: ''
endpoints:
  -
    custom: []
    httpMethods:
      - GET
    uri: api/parking-histories
    metadata:
      custom: []
      groupName: 'Parking Book'
      groupDescription: ''
      subgroup: ''
      subgroupDescription: ''
      title: 'Get parking history'
      description: |-
        Mengambil riwayat parkir user (booking & walk-in).
        Mendukung pagination atau limit data terakhir.
      authenticated: true
      deprecated: false
    headers:
      Content-Type: application/json
      Accept: application/json
    urlParameters: []
    cleanUrlParameters: []
    queryParameters:
      perPage:
        custom: []
        name: perPage
        description: 'Jumlah data per halaman. Default: 10'
        required: false
        example: 17
        type: integer
        enumValues: []
        exampleWasSpecified: false
        nullable: false
        deprecated: false
      limit:
        custom: []
        name: limit
        description: 'Ambil data terakhir tanpa pagination. Contoh: 3'
        required: false
        example: 17
        type: integer
        enumValues: []
        exampleWasSpecified: false
        nullable: false
        deprecated: false
    cleanQueryParameters:
      perPage: 17
      limit: 17
    bodyParameters: []
    cleanBodyParameters: []
    fileParameters: []
    responses:
      -
        custom: []
        status: 200
        content: |-
          {
            "data": [
              {
                "id": 12,
                "status": "completed",
                "type": "walk_in",
                "booked_at": "2026-02-01 09:00:00",
                "checkin_at": "2026-02-01 09:05:00",
                "checked_at": "2026-02-01 11:00:00",
                "parking_spot": {
                  "spot_number": "A001",
                  "parking_lot": {
                    "name": "Basement A"
                  }
                }
              }
            ],
            "meta": {
              "current_page": 1,
              "last_page": 3,
              "per_page": 10,
              "total": 25
            }
          }
        headers: []
        description: ''
    responseFields: []
    auth: []
    controller: null
    method: null
    route: null
  -
    custom: []
    httpMethods:
      - POST
    uri: api/book
    metadata:
      custom: []
      groupName: 'Parking Book'
      groupDescription: ''
      subgroup: ''
      subgroupDescription: ''
      title: 'Create parking book'
      description: |-
        Membuat booking parkir atau walk-in.
        User hanya boleh parkir atau booking 1x dalam 1 hari.
      authenticated: true
      deprecated: false
    headers:
      Content-Type: application/json
      Accept: application/json
    urlParameters: []
    cleanUrlParameters: []
    queryParameters: []
    cleanQueryParameters: []
    bodyParameters:
      parking_spot_id:
        custom: []
        name: parking_spot_id
        description: 'ID parking spot.'
        required: true
        example: 5
        type: integer
        enumValues: []
        exampleWasSpecified: true
        nullable: false
        deprecated: false
      type:
        custom: []
        name: type
        description: 'Jenis booking.'
        required: true
        example: walk_in
        type: string
        enumValues:
          - walk_in
          - booking
        exampleWasSpecified: true
        nullable: false
        deprecated: false
      start_at:
        custom: []
        name: start_at
        description: 'required_if:type,booking Format: Y-m-d H:i:s.'
        required: false
        example: '2026-02-01 10:00:00'
        type: datetime
        enumValues: []
        exampleWasSpecified: true
        nullable: false
        deprecated: false
    cleanBodyParameters:
      parking_spot_id: 5
      type: walk_in
      start_at: '2026-02-01 10:00:00'
    fileParameters: []
    responses:
      -
        custom: []
        status: 201
        content: |-
          {
            "message": "Parking booked successfully",
            "data": {
              "id": 15,
              "user_id": 3,
              "parking_spot_id": 5,
              "type": "walk_in",
              "status": "active",
              "booked_at": "2026-02-01 09:10:00",
              "checkin_at": "2026-02-01 09:10:00"
            }
          }
        headers: []
        description: ''
      -
        custom: []
        status: 400
        content: |-
          {
            "message": "Parking spot is not available"
          }
        headers: []
        description: ''
      -
        custom: []
        status: 400
        content: |-
          {
            "message": "You already booked or park today!"
          }
        headers: []
        description: ''
    responseFields: []
    auth: []
    controller: null
    method: null
    route: null
  -
    custom: []
    httpMethods:
      - POST
    uri: 'api/checkout/{id}'
    metadata:
      custom: []
      groupName: 'Parking Book'
      groupDescription: ''
      subgroup: ''
      subgroupDescription: ''
      title: 'Checkout parking'
      description: |-
        Digunakan saat user keluar dari area parkir.
        Hanya bisa dilakukan jika status masih active.
      authenticated: true
      deprecated: false
    headers:
      Content-Type: application/json
      Accept: application/json
    urlParameters:
      id:
        custom: []
        name: id
        description: 'ID parking book.'
        required: true
        example: 12
        type: integer
        enumValues: []
        exampleWasSpecified: true
        nullable: false
        deprecated: false
    cleanUrlParameters:
      id: 12
    queryParameters: []
    cleanQueryParameters: []
    bodyParameters: []
    cleanBodyParameters: []
    fileParameters: []
    responses:
      -
        custom: []
        status: 200
        content: |-
          {
            "message": "Checkout successful",
            "data": {
              "id": 12,
              "status": "completed",
              "checked_at": "2026-02-01 12:15:00"
            }
          }
        headers: []
        description: ''
      -
        custom: []
        status: 400
        content: |-
          {
            "message": "You already checked out or book cancelled"
          }
        headers: []
        description: ''
    responseFields: []
    auth: []
    controller: null
    method: null
    route: null
  -
    custom: []
    httpMethods:
      - POST
    uri: api/dashboard/parking-books
    metadata:
      custom: []
      groupName: 'Parking Book'
      groupDescription: ''
      subgroup: ''
      subgroupDescription: ''
      title: 'Create parking booking'
      description: ''
      authenticated: true
      deprecated: false
    headers:
      Content-Type: application/json
      Accept: application/json
    urlParameters: []
    cleanUrlParameters: []
    queryParameters: []
    cleanQueryParameters: []
    bodyParameters:
      parking_spot_id:
        custom: []
        name: parking_spot_id
        description: ''
        required: true
        example: 3
        type: integer
        enumValues: []
        exampleWasSpecified: true
        nullable: false
        deprecated: false
      user_id:
        custom: []
        name: user_id
        description: ''
        required: true
        example: 3
        type: integer
        enumValues: []
        exampleWasSpecified: true
        nullable: false
        deprecated: false
      start_at:
        custom: []
        name: start_at
        description: ''
        required: true
        example: '2026-01-30 10:00:00'
        type: string
        enumValues: []
        exampleWasSpecified: true
        nullable: false
        deprecated: false
    cleanBodyParameters:
      parking_spot_id: 3
      user_id: 3
      start_at: '2026-01-30 10:00:00'
    fileParameters: []
    responses:
      -
        custom: []
        status: 200
        content: |-
          {
           "id": 10,
           "status": "booked",
          }
        headers: []
        description: ''
      -
        custom: []
        status: 400
        content: |-
          {
           "message": "Parking spot is not available"
          }
        headers: []
        description: ''
    responseFields: []
    auth: []
    controller: null
    method: null
    route: null
  -
    custom: []
    httpMethods:
      - POST
    uri: api/dashboard/parking-books/relocate
    metadata:
      custom: []
      groupName: 'Parking Book'
      groupDescription: ''
      subgroup: ''
      subgroupDescription: ''
      title: 'Relocate parking booking'
      description: ''
      authenticated: true
      deprecated: false
    headers:
      Content-Type: application/json
      Accept: application/json
    urlParameters: []
    cleanUrlParameters: []
    queryParameters: []
    cleanQueryParameters: []
    bodyParameters:
      relocate_reason:
        custom: []
        name: relocate_reason
        description: ''
        required: true
        example: 'Spot maintenance'
        type: string
        enumValues: []
        exampleWasSpecified: true
        nullable: false
        deprecated: false
      parking_book_id:
        custom: []
        name: parking_book_id
        description: ''
        required: true
        example: 5
        type: integer
        enumValues: []
        exampleWasSpecified: true
        nullable: false
        deprecated: false
      to_parking_spot_id:
        custom: []
        name: to_parking_spot_id
        description: ''
        required: true
        example: 8
        type: integer
        enumValues: []
        exampleWasSpecified: true
        nullable: false
        deprecated: false
    cleanBodyParameters:
      relocate_reason: 'Spot maintenance'
      parking_book_id: 5
      to_parking_spot_id: 8
    fileParameters: []
    responses:
      -
        custom: []
        status: 200
        content: |-
          {
           "id": 2,
           "status": "active"
          }
        headers: []
        description: ''
    responseFields: []
    auth: []
    controller: null
    method: null
    route: null
  -
    custom: []
    httpMethods:
      - POST
    uri: api/dashboard/parking-books/cancel
    metadata:
      custom: []
      groupName: 'Parking Book'
      groupDescription: ''
      subgroup: ''
      subgroupDescription: ''
      title: 'Cancel parking booking'
      description: ''
      authenticated: true
      deprecated: false
    headers:
      Content-Type: application/json
      Accept: application/json
    urlParameters: []
    cleanUrlParameters: []
    queryParameters: []
    cleanQueryParameters: []
    bodyParameters:
      reason:
        custom: []
        name: reason
        description: ''
        required: true
        example: 'Change of plan'
        type: string
        enumValues: []
        exampleWasSpecified: true
        nullable: false
        deprecated: false
      parking_book_id:
        custom: []
        name: parking_book_id
        description: ''
        required: true
        example: 5
        type: integer
        enumValues: []
        exampleWasSpecified: true
        nullable: false
        deprecated: false
    cleanBodyParameters:
      reason: 'Change of plan'
      parking_book_id: 5
    fileParameters: []
    responses:
      -
        custom: []
        status: 200
        content: |-
          {
           "id": 1,
           "cancellation_type": "user_cancelled"
          }
        headers: []
        description: ''
    responseFields: []
    auth: []
    controller: null
    method: null
    route: null
