name: 'Parking Spot (User)'
description: ''
endpoints:
  -
    custom: []
    httpMethods:
      - GET
    uri: 'api/parking-spots/{id}'
    metadata:
      custom: []
      groupName: 'Parking Spot (User)'
      groupDescription: ''
      subgroup: ''
      subgroupDescription: ''
      title: 'Get parking spots by parking lot'
      description: |-
        Mengambil daftar parking spot berdasarkan parking lot tertentu,
        dilengkapi dengan summary ketersediaan spot.
      authenticated: true
      deprecated: false
    headers:
      Content-Type: application/json
      Accept: application/json
    urlParameters:
      id:
        custom: []
        name: id
        description: 'ID parking lot.'
        required: true
        example: 1
        type: integer
        enumValues: []
        exampleWasSpecified: true
        nullable: false
        deprecated: false
    cleanUrlParameters:
      id: 1
    queryParameters:
      search:
        custom: []
        name: search
        description: 'Filter berdasarkan nomor spot.'
        required: false
        example: A01
        type: string
        enumValues: []
        exampleWasSpecified: true
        nullable: false
        deprecated: false
      status:
        custom: []
        name: status
        description: 'Filter status parking spot.'
        required: false
        example: available
        type: string
        enumValues:
          - available
          - occupied
          - reserved
          - broken
        exampleWasSpecified: true
        nullable: false
        deprecated: false
      perPage:
        custom: []
        name: perPage
        description: 'Jumlah data per halaman. Default: 10.'
        required: false
        example: 10
        type: integer
        enumValues: []
        exampleWasSpecified: true
        nullable: false
        deprecated: false
    cleanQueryParameters:
      search: A01
      status: available
      perPage: 10
    bodyParameters: []
    cleanBodyParameters: []
    fileParameters: []
    responses:
      -
        custom: []
        status: 200
        content: |-
          {
            "parkingSpots": {
              "data": [
                {
                  "id": 1,
                  "parking_lot_id": 1,
                  "spot_number": "A001",
                  "status": "available",
                  "created_at": "2026-02-01 08:00:00"
                }
              ],
              "meta": {
                "current_page": 1,
                "last_page": 3,
                "per_page": 10,
                "total": 25
              }
            },
            "summary": {
              "total": 30,
              "available": 10,
              "occupied": 15,
              "reserved": 5
            }
          }
        headers: []
        description: ''
      -
        custom: []
        status: 404
        content: |-
          {
            "success": false,
            "message": "Parking lot not found"
          }
        headers: []
        description: ''
    responseFields: []
    auth: []
    controller: null
    method: null
    route: null
